%YAML 1.1
%TAG !u! tag:unity3d.com,2011:
--- !u!1001 &6651542610697264057
PrefabInstance:
  m_ObjectHideFlags: 0
  serializedVersion: 2
  m_Modification:
    m_TransformParent: {fileID: 0}
    m_Modifications:
    - target: {fileID: -927199367670048503, guid: e8411821aa254e94aa3abfe057ee73f1,
        type: 3}
      propertyPath: m_Name
      value: Drone Model 1
      objectReference: {fileID: 0}
    - target: {fileID: -927199367670048503, guid: e8411821aa254e94aa3abfe057ee73f1,
        type: 3}
      propertyPath: m_Layer
      value: 8
      objectReference: {fileID: 0}
    - target: {fileID: -4216859302048453862, guid: e8411821aa254e94aa3abfe057ee73f1,
        type: 3}
      propertyPath: m_LocalPosition.x
      value: 0
      objectReference: {fileID: 0}
    - target: {fileID: -4216859302048453862, guid: e8411821aa254e94aa3abfe057ee73f1,
        type: 3}
      propertyPath: m_LocalPosition.y
      value: 0
      objectReference: {fileID: 0}
    - target: {fileID: -4216859302048453862, guid: e8411821aa254e94aa3abfe057ee73f1,
        type: 3}
      propertyPath: m_LocalPosition.z
      value: 0
      objectReference: {fileID: 0}
    - target: {fileID: -4216859302048453862, guid: e8411821aa254e94aa3abfe057ee73f1,
        type: 3}
      propertyPath: m_LocalRotation.x
      value: 0.5
      objectReference: {fileID: 0}
    - target: {fileID: -4216859302048453862, guid: e8411821aa254e94aa3abfe057ee73f1,
        type: 3}
      propertyPath: m_LocalRotation.y
      value: 0.5
      objectReference: {fileID: 0}
    - target: {fileID: -4216859302048453862, guid: e8411821aa254e94aa3abfe057ee73f1,
        type: 3}
      propertyPath: m_LocalRotation.z
      value: 0.5
      objectReference: {fileID: 0}
    - target: {fileID: -4216859302048453862, guid: e8411821aa254e94aa3abfe057ee73f1,
        type: 3}
      propertyPath: m_LocalRotation.w
      value: 0.5
      objectReference: {fileID: 0}
    - target: {fileID: -4216859302048453862, guid: e8411821aa254e94aa3abfe057ee73f1,
        type: 3}
      propertyPath: m_RootOrder
      value: 0
      objectReference: {fileID: 0}
    - target: {fileID: -4216859302048453862, guid: e8411821aa254e94aa3abfe057ee73f1,
        type: 3}
      propertyPath: m_LocalEulerAnglesHint.x
      value: 0
      objectReference: {fileID: 0}
    - target: {fileID: -4216859302048453862, guid: e8411821aa254e94aa3abfe057ee73f1,
        type: 3}
      propertyPath: m_LocalEulerAnglesHint.y
      value: 90
      objectReference: {fileID: 0}
    - target: {fileID: -4216859302048453862, guid: e8411821aa254e94aa3abfe057ee73f1,
        type: 3}
      propertyPath: m_LocalEulerAnglesHint.z
      value: 90
      objectReference: {fileID: 0}
    - target: {fileID: -4216859302048453862, guid: e8411821aa254e94aa3abfe057ee73f1,
        type: 3}
      propertyPath: m_LocalScale.x
      value: 6
      objectReference: {fileID: 0}
    - target: {fileID: -4216859302048453862, guid: e8411821aa254e94aa3abfe057ee73f1,
        type: 3}
      propertyPath: m_LocalScale.y
      value: 6
      objectReference: {fileID: 0}
    - target: {fileID: -4216859302048453862, guid: e8411821aa254e94aa3abfe057ee73f1,
        type: 3}
      propertyPath: m_LocalScale.z
      value: 6
      objectReference: {fileID: 0}
    - target: {fileID: -1504981713932161579, guid: e8411821aa254e94aa3abfe057ee73f1,
        type: 3}
      propertyPath: m_Materials.Array.data[0]
      value: 
      objectReference: {fileID: 2100000, guid: dad3cb22d4222c341ba50407a784f3c5, type: 2}
    m_RemovedComponents: []
  m_SourcePrefab: {fileID: 100100000, guid: e8411821aa254e94aa3abfe057ee73f1, type: 3}
